epoch,train_loss,train_accuracy,train_ROC AUC,validate_loss,validate_accuracy,validate_ROC AUC
0,3.862295272706569,0.023347701149425287,0.5338496701358143,3.851193122069041,0.0234375,0.5648494292996454
1,3.826963056092975,0.033045977011494254,0.5916731627537296,3.798105442523956,0.03854166666666667,0.6168050476507092
2,3.760411388572605,0.04040948275862069,0.6289504082388832,3.7178226033846538,0.0421875,0.6492170877659574
3,3.6715426910882707,0.04418103448275862,0.6586923903808367,3.615353020032247,0.05260416666666667,0.6766055795656029
4,3.5804771911138777,0.05172413793103448,0.6850138796213137,3.520888562997182,0.053125,0.706197224069149
5,3.4721385062425987,0.07201867816091954,0.717936638510807,3.3875412702560426,0.090625,0.7499301861702128
6,3.3336679318855547,0.08997844827586207,0.7802290074927687,3.2623225887616476,0.10729166666666666,0.8228028036347518
7,3.1470266772412705,0.1206896551724138,0.8424711075657146,3.014867337544759,0.12291666666666666,0.8757405252659576
8,2.896560141409951,0.13757183908045978,0.8853300631530346,2.738442810376485,0.15729166666666666,0.903449689716312
9,2.6133302244646797,0.1713362068965517,0.902991546917297,2.4713511228561402,0.18489583333333334,0.916324800531915
10,2.3826847281949273,0.20204741379310345,0.9171889560195142,2.2992359697818756,0.22708333333333333,0.9268639184397164
11,2.235110395941241,0.21264367816091953,0.9302222083428208,2.127672803401947,0.23802083333333332,0.9442975675975179
12,2.0911128240070123,0.23832614942528735,0.9420606187700811,1.9958203454812369,0.27239583333333334,0.9522332114361701
13,1.9177598247582885,0.26885775862068967,0.9554755820915661,1.8232981125513712,0.29322916666666665,0.9614311835106383
14,1.7948604712541076,0.28951149425287354,0.9594911653215945,1.7152703523635864,0.3,0.9633095079787235
15,1.6970062481945958,0.29920977011494254,0.9633397180777276,1.6337677756945292,0.3125,0.9674914117907801
16,1.5859980843533044,0.3166307471264368,0.9677522642750523,1.5266596833864847,0.346875,0.9724775598404256
17,1.506365793874894,0.34698275862068967,0.9718529027626684,1.4752740641434987,0.3515625,0.973845855496454
18,1.4439584790975197,0.3642241379310345,0.9737491211176328,1.3830151716868082,0.34427083333333336,0.9770065935283687
19,1.3478522883064445,0.38236350574712646,0.9777665820198852,1.3247350374857585,0.3723958333333333,0.9793342752659575
20,1.3041473640792671,0.3911637931034483,0.9789139385736333,1.2761083563168845,0.40208333333333335,0.9801036125886523
21,1.2537748758820282,0.41648706896551724,0.9803585602879045,1.2272235830624898,0.40520833333333334,0.9821409574468085
22,1.1852230296052735,0.4317528735632184,0.9824191902581358,1.1718255658944448,0.4557291666666667,0.9838006981382977
23,1.1378571754214408,0.43157327586206895,0.9838482635287272,1.1334700683752696,0.4270833333333333,0.9848215868794324
24,1.0999517543562527,0.4427083333333333,0.984992984753038,1.0830794016520182,0.4625,0.9861893284574468
25,1.052442590053054,0.4624640804597701,0.9862531334067008,1.0447483360767365,0.4713541666666667,0.9870370678191488
26,1.0260633805702473,0.46875,0.9867493659397373,1.0071718086798986,0.471875,0.9877476728723406
27,0.9778757492701212,0.47683189655172414,0.9874469376417806,0.9556307484706242,0.49166666666666664,0.9883344414893617
28,0.9465488808593531,0.48204022988505746,0.9881236737704606,0.9621298760175705,0.4796875,0.9880457668439716
29,0.9137081623762503,0.4994612068965517,0.9886822977279243,0.9188209265470505,0.48541666666666666,0.9888856105939717
30,0.8925561860375021,0.4942528735632184,0.9887068227624999,0.923571374018987,0.49635416666666665,0.9885771276595745
31,0.8732715766320284,0.49766522988505746,0.9890526438679047,0.8930018484592438,0.4973958333333333,0.9890799534574468
32,0.8734277832782131,0.5008979885057471,0.9891243248285982,0.8815669765075048,0.503125,0.9888735593971633
33,0.850524380289275,0.5179597701149425,0.9895535541106922,0.8932681073745091,0.503125,0.9892949357269503
34,0.84718567269972,0.5111350574712644,0.9896045477353033,0.8798668732245764,0.5109375,0.9895927526595744
35,0.835807038449693,0.5210129310344828,0.9896630849904284,0.8759042918682098,0.5052083333333334,0.9894273603723405
36,0.8190981728592138,0.5262212643678161,0.9898105975556795,0.8413053949673971,0.521875,0.989924645390071
37,0.802387016600576,0.5301724137931034,0.9901866590663766,0.8331121822198232,0.5213541666666667,0.9899925199468086
38,0.7888442205971685,0.5416666666666666,0.9903649720444254,0.8461468597253163,0.5203125,0.9897082779255317
39,0.7823574936938011,0.5441810344827587,0.9905396614444978,0.8366381784280141,0.5125,0.9901748116134751
40,0.7915572623411814,0.5538793103448276,0.9905385414294869,0.8493498116731644,0.5213541666666667,0.9895988475177306
41,0.7679770897174704,0.5558548850574713,0.9907932130779806,0.8263513068358104,0.5296875,0.9901612367021276
42,0.7694387226954273,0.5659123563218391,0.9909790367449254,0.8449330449104309,0.5333333333333333,0.9902016843971632
43,0.7619632890169648,0.5668103448275862,0.9910781251317664,0.8213007986545563,0.5536458333333333,0.9907496675531916
44,0.755593753751667,0.5625,0.9910518706622478,0.7971279899279277,0.559375,0.9909881981382979
45,0.7501648524026762,0.5738146551724138,0.99136162069598,0.810672152042389,0.5489583333333333,0.9907222406914894
46,0.7246898416130022,0.6005747126436781,0.9919235388152401,0.8168181190888087,0.5557291666666667,0.9908034131205674
47,0.7134373564829771,0.6109913793103449,0.9923395255669121,0.8284891118605932,0.565625,0.9911292109929078
48,0.7092563458557787,0.6196120689655172,0.992528116329766,0.7735738585392634,0.5994791666666667,0.9922273936170214
49,0.6976488462124748,0.6368534482758621,0.993169357865088,0.7896463433901469,0.5963541666666666,0.9924174423758866
50,0.6895605096186714,0.6546336206896551,0.9933668758064107,0.7690955926974614,0.6234375,0.9928656914893618
51,0.6558088307408081,0.6711566091954023,0.9941607358577681,0.7386450330416362,0.6635416666666667,0.9936328125000001
52,0.6365211972560005,0.6966594827586207,0.9946826957944359,0.7357896486918132,0.6536458333333334,0.9935854388297874
53,0.625518975415449,0.7047413793103449,0.9949234990217656,0.6853522757689158,0.6911458333333333,0.9945933067375887
54,0.5911876329745369,0.7243175287356322,0.9955315354061779,0.6899189680814743,0.6932291666666667,0.9945029920212767
55,0.5769565722038006,0.7293462643678161,0.9957102436836422,0.6749193251132966,0.6880208333333333,0.9948853058510639
56,0.5707973639170328,0.7390445402298851,0.9958412195566743,0.6442372664809227,0.7213541666666666,0.9954981161347518
57,0.5512407139457506,0.7431752873563219,0.9962115162842278,0.6037963991363843,0.7317708333333334,0.9957773714539008
58,0.5251293995942192,0.7593390804597702,0.9965208380769263,0.642187004784743,0.7135416666666666,0.9950922539893619
59,0.5059823806601009,0.7751436781609196,0.99682910573785,0.5903488447268804,0.7322916666666667,0.9960419437056739
60,0.49985267127724897,0.7737068965517241,0.9968612896986025,0.6128812670707703,0.74375,0.9958804299645391
61,0.4899789274766527,0.7846623563218391,0.9970560734856344,0.5617128342390061,0.7677083333333333,0.9963117796985814
62,0.46007999675027256,0.8035201149425287,0.9974077911406549,0.5845391427477201,0.7432291666666667,0.9961297650709221
63,0.44889826079209644,0.8047772988505747,0.9974955146692976,0.5399349237481753,0.7692708333333333,0.9964120678191489
64,0.4493876750441803,0.8060344827586207,0.9974891898786483,0.5751046950618426,0.7552083333333334,0.9962577570921985
65,0.43218901984650515,0.813757183908046,0.997682919533905,0.5609417453408241,0.7630208333333334,0.9961779698581559
66,0.42300481220771524,0.8153735632183908,0.997767711258549,0.5400559529662132,0.7729166666666667,0.996505707003546
67,0.40190543174401094,0.8290229885057471,0.9980184628545045,0.5560640359918276,0.7854166666666667,0.9962777039007092
68,0.40118253976106644,0.8315373563218391,0.9980330230496454,0.5471952771147092,0.7828125,0.9966960328014184
69,0.39397551162146977,0.8335129310344828,0.9981043745941593,0.5228733912110328,0.7729166666666667,0.9969071365248227
70,0.4014702460717881,0.8263290229885057,0.9979842035718199,0.5561069473624229,0.778125,0.9967237367021278
71,0.38882288859150876,0.8372844827586207,0.9981155418026496,0.5209305569529533,0.7895833333333333,0.9967882867907804
72,0.3795383942538294,0.8394396551724138,0.9982610119875865,0.5178899159034093,0.7921875,0.9968871897163121
73,0.3508681869883647,0.8557830459770115,0.9984965445560418,0.5155246046682199,0.79375,0.9969592198581562
74,0.35493279856511917,0.8554238505747126,0.9984554663584385,0.5527201160788536,0.7776041666666667,0.9966040558510638
75,0.34699014231733893,0.8588362068965517,0.9985104788604414,0.5145498191316923,0.7921875,0.9969550642730497
76,0.3547727856999156,0.8602729885057471,0.9984304636704028,0.5436328408618768,0.7875,0.9967032358156028
77,0.346482887179002,0.859375,0.9984970057386934,0.5162807832161586,0.7932291666666667,0.9969359485815603
78,0.3112608271426168,0.8742816091954023,0.9987930520593518,0.5324482602377733,0.7838541666666666,0.9969015957446807
79,0.32431841877171363,0.8741020114942529,0.9986902742112984,0.5662983807424704,0.7802083333333333,0.996583554964539
80,0.309183564079904,0.8741020114942529,0.9988220077415437,0.523033770173788,0.8083333333333333,0.9971262743794326
81,0.31973136952896225,0.8705100574712644,0.9987577715865106,0.5120275174578031,0.7973958333333333,0.9969506316489359
82,0.2987971459140723,0.8838002873563219,0.9988822579608031,0.5307162635028362,0.7979166666666667,0.9969863696808511
83,0.3008924828863692,0.8791307471264368,0.9988771190684005,0.5315100406606992,0.7916666666666666,0.9968520057624114
84,0.3104445214929252,0.875,0.9988086334446497,0.5284515117605527,0.7973958333333333,0.9970489804964537
85,0.2851660502539284,0.8900862068965517,0.9989990030548738,0.5077511735260487,0.8057291666666667,0.9972121564716311
86,0.263402271416338,0.8967313218390804,0.9991466473865965,0.5843330902357896,0.7916666666666666,0.9966871675531914
87,0.2649595453564463,0.8915229885057471,0.9991110045559575,0.5078434797624747,0.8088541666666667,0.9969896941489361
88,0.275949674904689,0.8920617816091954,0.9990431777645661,0.4839881457388401,0.8171875,0.9973202016843973
89,0.2605108380660243,0.8945761494252874,0.9991478991680792,0.5072566062211991,0.8098958333333334,0.9973564937943263
90,0.24639427045295978,0.9073275862068966,0.999244286342247,0.5273901703457038,0.7994791666666666,0.9970888741134751
91,0.24751580275338272,0.9067887931034483,0.9992201730778959,0.5364920884370804,0.7989583333333333,0.9968871897163121
92,0.2603960970694991,0.8969109195402298,0.9991485580004384,0.5093341400225957,0.8046875,0.9970966312056737
93,0.2458218591523239,0.8999640804597702,0.9992341403239137,0.5392860154310862,0.7901041666666667,0.9967952127659574
94,0.24414048463791266,0.9060704022988506,0.9992337120828801,0.5027935278912385,0.8098958333333334,0.9973869680851064
95,0.21848217479285154,0.9191810344827587,0.9994094556147275,0.511695887396733,0.8192708333333333,0.9970816710992909
96,0.2314759584507723,0.9082255747126436,0.9993287815923292,0.5078276298940182,0.8072916666666666,0.9973357158687943
97,0.22468608619923564,0.9130747126436781,0.9993580996323188,0.4880433278779189,0.8161458333333333,0.997427692819149
98,0.21296971051514835,0.9190014367816092,0.999400264903315,0.49715294589598974,0.8182291666666667,0.9973129986702128
99,0.20902452056949167,0.9181034482758621,0.9994504349874769,0.5248953143755595,0.8125,0.9972431848404256
100,0.23408903014557114,0.9150502873563219,0.9993097413371449,0.5380518694718679,0.8057291666666667,0.9970559064716313
101,0.19223576507948595,0.9339080459770115,0.9995526528280245,0.5211411354442438,0.8177083333333334,0.9971074357269503
102,0.20487406742812572,0.9254669540229885,0.9994521808932291,0.47894521032770476,0.825,0.9975947473404255
103,0.21309255785041156,0.9251077586206896,0.9993884718040834,0.5276382394134999,0.809375,0.9972462322695035
104,0.20314159396307907,0.9252873563218391,0.9994662799057185,0.4864561540385087,0.828125,0.9973944481382978
105,0.195402217879035,0.9279813218390804,0.9995112781558597,0.5003950774669648,0.8244791666666667,0.9974609375000002
106,0.20445177425769553,0.9270833333333334,0.999450369104241,0.48095222090681394,0.8276041666666667,0.9976002881205676
107,0.1833084392650374,0.9281609195402298,0.9995773919831171,0.4813764659066995,0.8265625,0.9975127437943263
108,0.18555346938470998,0.9304956896551724,0.9995386855820072,0.47775942149261635,0.8307291666666666,0.997475897606383
109,0.1923328316931067,0.9247485632183908,0.9995459327379597,0.49290392311910786,0.8322916666666667,0.9973537234042554
110,0.19747092039591965,0.9261853448275862,0.9994787977205454,0.49872086669007937,0.8317708333333333,0.9973182624113475
111,0.17222674000451618,0.9385775862068966,0.9996055570664777,0.5116852308313052,0.8239583333333333,0.9973578789893618
112,0.16960974555762334,0.9358836206896551,0.9996347103983774,0.5055428656438986,0.8197916666666667,0.9973506759751771
113,0.18095227172491193,0.9312140804597702,0.999574493120736,0.5036981530487538,0.8333333333333334,0.9972966533687943
114,0.16474248740779257,0.9405531609195402,0.9996127383391944,0.4832485814889272,0.8276041666666667,0.9976218971631207
115,0.16190939769148827,0.9380387931034483,0.9996544094859211,0.47196121960878373,0.8317708333333333,0.9977105496453901
116,0.16615625081219892,0.9419899425287356,0.9996310209371653,0.5049780358870825,0.825,0.9975216090425533
117,0.1777092227819322,0.9331896551724138,0.9995821026344863,0.5405384299655756,0.8291666666666667,0.9970686502659575
118,0.15226070103289066,0.9466594827586207,0.9996858028478424,0.4832871244599422,0.8270833333333333,0.9976670545212766
119,0.15875066876753993,0.9425287356321839,0.999660108385829,0.5147416340808074,0.8276041666666667,0.9972581449468085
120,0.1671201204881072,0.9421695402298851,0.9996117171490373,0.48237411777178446,0.840625,0.9975216090425533
121,0.15549487498556747,0.9430675287356322,0.9996841557669441,0.5097780168056488,0.834375,0.9971908244680853
122,0.15265522292954312,0.9425287356321839,0.9997001653932757,0.5098893666019042,0.834375,0.9974382203014184
123,0.16211628333676134,0.9398347701149425,0.9996470305634968,0.5643035518626373,0.81875,0.9971251662234042
124,0.14344105016354514,0.9482758620689655,0.9997232574674694,0.5278005170325438,0.8322916666666667,0.9971143617021275
125,0.14371801436418433,0.9466594827586207,0.9997275398778049,0.5185036535064379,0.83125,0.9972387522163121
126,0.1429520788142222,0.9466594827586207,0.9997178550421228,0.5476486183702945,0.8135416666666667,0.9973046875
127,0.15038664060933837,0.9452227011494253,0.9996978924216359,0.5190494986871879,0.8354166666666667,0.9974479166666668
