Anatomical Region,View (Abbreviation),View (Jockey Club),View
Carpus,DP,DPa,dorsopalmar
Carpus,DLPMO,D55ºL – PAMO,dorsal 55º lateral to palmaromedial oblique
Carpus,DMPLO,D75ºM – PALO,dorsal 75º medial to palmarolateral oblique
Carpus,FLEXED LM,Flexed LM,flexed lateromedial
Carpus,FLEXED DP,Flexed D60ºPR – DDIS-TAL Oblique view of Distal Carpal Bones,flexed dorsal 60º proximal dorsodistal oblique
Front Fetlock,DP,DPa,dorsopalmar
Front Fetlock,DLPMO,D45ºL – PAMO,dorsal 45º lateral to palmaromedial oblique
Front Fetlock,DMPLO,D45ºM – PALO,dorsal 45º medial to palmarolateral oblique
Front Fetlock,FLEXED LM,Flexed LM,flexed lateromedial
Front Fetlock,FLEXED DP,Flexed D125º Distal – PAPR Oblique,flexed dorsal 125º distal to palmaroproximal oblique
Front Fetlock,LM,LM,lateromedial
Hind Fetlock,DP,DPL,dorsoplantar
Hind Fetlock,DLPMO,D45ºL – PLMO,dorsal 45º lateral to pantaromedial oblique
Hind Fetlock,DMPLO,D45ºM – PLLO,dorsal 45º medial to pantarolateral oblique
Hind Fetlock,LM,LM,lateromedial
Tarsus,DP,DPL,dorsoplantar
Tarsus,DLPMO,D10ºL – PLMO,dorsal 10º lateral to pantaromedial oblique
Tarsus,DMPLO,D65ºM – PLLO,dorsal 65º medial to pantarolateral oblique
Tarsus,LM,LM,lateromedial
Stifle,LM,LM,lateromedial
Stifle,CD CR,CD – CR,caudocranial
Stifle,CDL CRMO,CDL – CRMO,caudolateral to craniomedial oblique
Front Hoof,LM,LM,lateromedial
Front Hoof,DP,D60ºPR,dorsal 60º proximal to palmarodistal oblique
